{
  "type": "service_account",
  "project_id": "zunroofproductionapp",
  "private_key_id": "38e5e3af776656dbd34e564cc7cf6fbb1f9c0869",
  "private_key": "-----BEGIN PRIVATE KEY-----\nMIIEvQIBADANBgkqhkiG9w0BAQEFAASCBKcwggSjAgEAAoIBAQCqGO00FjqiVII3\nfriEB0y7Kca54W1UqVS1v7/1UnisFf3pbuDHLYGJiMD9yY5VTe2C13ZWih20zTyN\nwGTkXMT0kr+Fb5PEwlyoEMofg8gQzsxV1L/la9vX/hJpxxrZIyfEycXyRZsecjzp\nIsJhcIv/rr3Bsp+xc5VQuJVwwhccqhzktjVJMUedXIe48k0GFSGABK0Xtko7pKql\nh1i9XABpa5YZAeda79CyFf+UEZQMji3utY9zuKgKCXxDyd3Jk4IpxeyvvswfDmTJ\nOJBwWXrcwKbfX1GwKQKa7Yrx/QcqTykNGobneccuGLDrKlWBgwS6ktzHXv9e7h4L\nAPewDJQ1AgMBAAECggEAHGdirtS6cFKD1yAEUFnGtKdWfcI4x08qa9osBBuENppK\nhvFCvEfrTmvlbEu8xp5nd7ailnNkYAV4o+QZhO+/3OZncHEQICZjohYBpo8TOMlL\nolaPP9CJytDswriikVlXQft+oEUC0Ov7I2QwSOSqICVOHxsEozV9nNfh7o0enmS8\nwRsiABrLzwmxmN1XIpzV0PieQUDHflL0LI9ZJ7XA1TqtgR7TDjMK6mDuRqPbmgeb\na5cTEF7LIAr8AMsKOZie1BBoaU7i0JoHR9BMCLrbWA3sHNvWUk9Bcf+56LgTRgJ/\nNTkTAAnbJtJN1lPaN/SOZY5vayuq/U7oqqHSAYE2YQKBgQDlm3S7txE5iolLzP0M\nfGYMBlzf5boxXODA+uF/WD0gzwMsDu3XDdEzqmuDJn/8EcaRefi3VXfqJ4JDyMBg\n+dqvTsy6bn1cgwpeQQ5n3xn4oLQRKcHMdC+VU6eoygeasQ3/o4tC2sUV1T+M85Ph\nAmKMher+i1f5RdHiMF/WGCOhIQKBgQC9pk0sprWasdWla3odYtX1MUT2rcI6/Emk\nGPE23RWk6ASAAm7eYCWfYHqFs4+0dmFIUiD6Nrx/wjWIkcv7mEGosTNroZuKWOCk\nOTC3vVbgPqC2grh4VfeepFpcFwjhZ3bUligJOJldtZyRcjM6wFCbzmNpNjff/5R1\nmNm2zjpMlQKBgQCqmvAJ6uTplH6fzBjahjRtCu1HkDLhKtn1inSzYqVJE4iP3Cft\ne17OvPpV4O2IJs0cmzyrPN51JhYst6X6aKyNRkfo3uBXNScnEb/afnOVwhMKDbTq\nbgpNMnOJf1RXJOf541M+wb9fkaw+114x+suvDnKl4HPlzHM/ViJful//AQKBgDvB\nrMuG8+38Xt8ykFW2EMijb6FyeqLvX5zPJyIsY2eEm/ZhzeFP1krzsWdzfrJUIq8R\nAccVfCudXBTeK7Ho9bdbrmIZl9Lt0kqsoocip78cvLMFWW7BV7aq/rXJpEixuyWc\n8pyFMv3t/ZlurGm0szGExJogNVblRzgOo3sQXBpJAoGANK2utzx9Xr9XZw6ZQAe7\nzy6RTBLYFnSFfjarKLy6DwF00WDAcX6IQ5kM7WEigPvLnLJx37AWvuga7/K7cMEG\nncvQLPy0LkZuMJ6QlTtvXvCkw7LlK9oXKShFCScdEok/qtstkXSgKhbfd7M57xs+\nHdAzs/62iAf5F5UJzoHTpd0=\n-----END PRIVATE KEY-----\n",
  "client_email": "firebase-adminsdk-2j55v@zunroofproductionapp.iam.gserviceaccount.com",
  "client_id": "109040172890420429895",
  "auth_uri": "https://accounts.google.com/o/oauth2/auth",
  "token_uri": "https://accounts.google.com/o/oauth2/token",
  "auth_provider_x509_cert_url": "https://www.googleapis.com/oauth2/v1/certs",
  "client_x509_cert_url": "https://www.googleapis.com/robot/v1/metadata/x509/firebase-adminsdk-2j55v%40zunroofproductionapp.iam.gserviceaccount.com"
}
